…
    > platform_metrics %>% filter(platform == "Amer Math Soc")
    # A tibble: 5 x 10
      platform      ayear users   upm  uses   auf   i_f upm_rank i_f_rank auf_rank
      <chr>         <dbl> <int> <dbl> <int> <dbl> <dbl>    <int>    <int>    <int>
    1 Amer Math Soc  2012   155   2.7  1375  99.7  19.4        2        4        4
    2 Amer Math Soc  2013   144   2.5  1213  99.2  19.8        2        4        4
    3 Amer Math Soc  2016   121   2.2  1183  98.6  19          2        4        4
    4 Amer Math Soc  2017    95   1.7  1006  95.9  28.5        2        4        4
    5 Amer Math Soc  2018    90   1.5   687  86.3  15.3        2        4        4

Most popular platforms by users per mille recently:

    > platform_metrics %>% filter(ayear == 2018) %>% select(platform, users, upm) %>% arrange(desc(upm))
    # A tibble: 381 x 3
       platform                 users   upm
       <chr>                    <int> <dbl>
     1 ProQuest                 26237  445.
     2 Scholars Portal Journals 25800  437.
     3 JSTOR                    21971  372.
     4 EbscoHost                21229  360.
     5 Scholars Portal Books    18138  307.
     6 Gale                     14005  237.
     7 Ebrary                   13630  231
     8 T & F Online             13510  229
     9 Wiley                    10592  180.
    10 Sage                     10571  179.
    # … with 371 more rows
…
